\relax 
\@writefile{toc}{\contentsline {section}{\numberline {5}Conclusiones generales}{18}}
\@writefile{toc}{\contentsline {paragraph}{Aspecto cuantitativo:}{18}}
\@writefile{toc}{\contentsline {paragraph}{Aspecto cualitativo:}{18}}
\@setckpt{conclusiones}{
\setcounter{page}{19}
\setcounter{equation}{5}
\setcounter{enumi}{4}
\setcounter{enumii}{0}
\setcounter{enumiii}{0}
\setcounter{enumiv}{0}
\setcounter{footnote}{0}
\setcounter{mpfootnote}{0}
\setcounter{part}{0}
\setcounter{section}{5}
\setcounter{subsection}{0}
\setcounter{subsubsection}{0}
\setcounter{paragraph}{0}
\setcounter{subparagraph}{0}
\setcounter{figure}{7}
\setcounter{table}{0}
\setcounter{integrantesCount}{3}
\setcounter{directoresCount}{0}
\setcounter{float@type}{8}
\setcounter{AM@survey}{0}
\setcounter{ContinuedFloat}{0}
\setcounter{subfigure}{0}
\setcounter{subtable}{0}
\setcounter{parentequation}{0}
\setcounter{algorithm}{0}
\setcounter{ALG@line}{0}
\setcounter{ALG@rem}{0}
\setcounter{ALG@nested}{0}
\setcounter{ALG@Lnr}{2}
\setcounter{ALG@blocknr}{10}
\setcounter{ALG@storecount}{0}
\setcounter{ALG@tmpcounter}{0}
}
