\relax 
\@writefile{toc}{\contentsline {section}{\numberline {4}Experimentaci\IeC {\'o}n}{6}}
\@writefile{toc}{\contentsline {subsection}{\numberline {4.1}Comparaci\IeC {\'o}n cualitativa}{6}}
\@writefile{toc}{\contentsline {subsubsection}{\numberline {4.1.1}Elecci\IeC {\'o}n del m\IeC {\'e}todo alternativo}{6}}
\@writefile{toc}{\contentsline {subsubsection}{\numberline {4.1.2}Existencia de puntaje insuperable}{6}}
\@writefile{toc}{\contentsline {subsubsection}{\numberline {4.1.3}Peso de los rivales enfrentados}{6}}
\@writefile{lof}{\contentsline {figure}{\numberline {1}{\ignorespaces Detalle de partidos disputados hasta la fecha 4\relax }}{7}}
\@writefile{lof}{\contentsline {figure}{\numberline {2}{\ignorespaces Puntaje generado para cada equipo por WP y CMM\relax }}{7}}
\@writefile{lof}{\contentsline {figure}{\numberline {3}{\ignorespaces Puntaje generado para ambas variantes de resultado de Fecha 5, para WP y CMM\relax }}{8}}
\@writefile{toc}{\contentsline {subsubsection}{\numberline {4.1.4}Peso de los rivales vencidos}{8}}
\@writefile{lof}{\contentsline {figure}{\numberline {4}{\ignorespaces Puntaje final generado por CMM y CMM Aternativo\relax }}{9}}
\@writefile{toc}{\contentsline {paragraph}{Peque\IeC {\~n}a discusi\IeC {\'o}n sobre el valor de los rivales vencidos.}{9}}
\@writefile{toc}{\contentsline {subsubsection}{\numberline {4.1.5}Experimento CMM vs WP durante el tiempo }{10}}
\@writefile{toc}{\contentsline {paragraph}{Hipotesis:}{10}}
\@writefile{toc}{\contentsline {paragraph}{Resultados:}{10}}
\@writefile{toc}{\contentsline {paragraph}{Conclusi\IeC {\'o}n:}{11}}
\@writefile{toc}{\contentsline {subsubsection}{\numberline {4.1.6}Experimento Mejor estrategia con menor cantidad de partidos ganados }{11}}
\@writefile{toc}{\contentsline {paragraph}{Hipotesis:}{11}}
\@writefile{toc}{\contentsline {paragraph}{Resultados:}{12}}
\@writefile{toc}{\contentsline {paragraph}{Conclusiones:}{13}}
\@writefile{toc}{\contentsline {subparagraph}{Caso donde nuestra estrategia es mejor}{13}}
\@writefile{toc}{\contentsline {subsection}{\numberline {4.2}Comparaci\IeC {\'o}n cuantitavia}{14}}
\@writefile{toc}{\contentsline {subsubsection}{\numberline {4.2.1}Comparativa entre Eliminaci\IeC {\'o}n Gaussiana y Factorizaci\IeC {\'o}n de Cholesky}{15}}
\@writefile{toc}{\contentsline {paragraph}{Desarrollo del experimento}{15}}
\@writefile{toc}{\contentsline {paragraph}{Hipotesis}{15}}
\@writefile{lof}{\contentsline {figure}{\numberline {5}{\ignorespaces Tiempo de computo en funci\IeC {\'o}n del tama\IeC {\~n}o\relax }}{15}}
\providecommand*\caption@xref[2]{\@setref\relax\@undefined{#1}}
\newlabel{fig:matrices_chicas}{{5}{15}}
\@writefile{lof}{\contentsline {figure}{\numberline {6}{\ignorespaces Tiempo de computo en funci\IeC {\'o}n del tama\IeC {\~n}o para matrices grandes\relax }}{16}}
\newlabel{fig:matrices_chicas}{{6}{16}}
\@writefile{lof}{\contentsline {figure}{\numberline {7}{\ignorespaces Tiempo de computo en funci\IeC {\'o}n de la cantidad de partidos\relax }}{16}}
\newlabel{fig:matrices_chicas}{{7}{16}}
\@writefile{toc}{\contentsline {paragraph}{Conclusi\IeC {\'o}n del experimento}{16}}
\@writefile{toc}{\contentsline {subsection}{\numberline {4.3}Que pasar\IeC {\'\i }a si tomaramos a los empates en cuenta}{17}}
\@writefile{toc}{\contentsline {subsubsection}{\numberline {4.3.1}Nuestra soluci\IeC {\'o}n}{17}}
\@writefile{toc}{\contentsline {subsubsection}{\numberline {4.3.2}Ejemplo practico y vision de resultados}{17}}
\@setckpt{experimentacion}{
\setcounter{page}{18}
\setcounter{equation}{5}
\setcounter{enumi}{4}
\setcounter{enumii}{0}
\setcounter{enumiii}{0}
\setcounter{enumiv}{0}
\setcounter{footnote}{0}
\setcounter{mpfootnote}{0}
\setcounter{part}{0}
\setcounter{section}{4}
\setcounter{subsection}{3}
\setcounter{subsubsection}{2}
\setcounter{paragraph}{0}
\setcounter{subparagraph}{0}
\setcounter{figure}{7}
\setcounter{table}{0}
\setcounter{integrantesCount}{3}
\setcounter{directoresCount}{0}
\setcounter{float@type}{8}
\setcounter{AM@survey}{0}
\setcounter{ContinuedFloat}{0}
\setcounter{subfigure}{0}
\setcounter{subtable}{0}
\setcounter{parentequation}{0}
\setcounter{algorithm}{0}
\setcounter{ALG@line}{0}
\setcounter{ALG@rem}{0}
\setcounter{ALG@nested}{0}
\setcounter{ALG@Lnr}{2}
\setcounter{ALG@blocknr}{10}
\setcounter{ALG@storecount}{0}
\setcounter{ALG@tmpcounter}{0}
}
