\relax 
\@writefile{toc}{\contentsline {section}{\numberline {2}Colley's Matrix Method}{3}}
\@writefile{toc}{\contentsline {subsection}{\numberline {2.1}Introducci\IeC {\'o}n al m\IeC {\'e}todo}{3}}
\@writefile{toc}{\contentsline {subsection}{\numberline {2.2}Explicaci\IeC {\'o}n te\IeC {\'o}rica del m\IeC {\'e}todo}{3}}
\@writefile{toc}{\contentsline {subsubsection}{\numberline {2.2.1}Estad\IeC {\'\i }stica basica}{3}}
\@writefile{toc}{\contentsline {subsubsection}{\numberline {2.2.2}Stregh of Schedule(SOS)}{4}}
\@setckpt{introduccionTeorica}{
\setcounter{page}{5}
\setcounter{equation}{1}
\setcounter{enumi}{0}
\setcounter{enumii}{0}
\setcounter{enumiii}{0}
\setcounter{enumiv}{0}
\setcounter{footnote}{0}
\setcounter{mpfootnote}{0}
\setcounter{part}{0}
\setcounter{section}{2}
\setcounter{subsection}{2}
\setcounter{subsubsection}{2}
\setcounter{paragraph}{0}
\setcounter{subparagraph}{0}
\setcounter{figure}{0}
\setcounter{table}{0}
\setcounter{integrantesCount}{3}
\setcounter{directoresCount}{0}
\setcounter{float@type}{8}
\setcounter{AM@survey}{0}
\setcounter{ContinuedFloat}{0}
\setcounter{subfigure}{0}
\setcounter{subtable}{0}
\setcounter{parentequation}{0}
\setcounter{algorithm}{0}
\setcounter{ALG@line}{0}
\setcounter{ALG@rem}{0}
\setcounter{ALG@nested}{0}
\setcounter{ALG@Lnr}{2}
\setcounter{ALG@blocknr}{10}
\setcounter{ALG@storecount}{0}
\setcounter{ALG@tmpcounter}{0}
}
