\relax 
\catcode `"\active 
\catcode `<\active 
\catcode `>\active 
\@nameuse{es@quoting}
\select@language{spanish}
\@writefile{toc}{\select@language{spanish}}
\@writefile{lof}{\select@language{spanish}}
\@writefile{lot}{\select@language{spanish}}
\@input{resumen.aux}
\@input{introduccionTeorica.aux}
\@input{desarrollo.aux}
\@input{experimentacion.aux}
\@input{conclusiones.aux}
\@writefile{toc}{\contentsline {section}{\numberline {6}Ap\IeC {\'e}ndice A - Enunciado}{19}}
\@input{compilacionTP.aux}
\@input{bibliografia.aux}
\newlabel{LastPage}{{}{26}}
\xdef\lastpage@lastpage{26}
\gdef\lastpage@lastpageHy{}
