#TEAMS  #GAMES TIME(sec)
33 1 0.001010
33 2 0.001007
33 3 0.001012
33 4 0.000803
33 5 0.000289
33 6 0.000277
33 7 0.000293
33 8 0.000294
33 9 0.000287
33 10 0.000287
33 11 0.000289
33 12 0.000289
33 13 0.000276
33 14 0.000262
33 15 0.000260
33 16 0.000262
33 17 0.000281
33 18 0.000262
33 19 0.000262
33 20 0.000259
33 21 0.000261
33 22 0.000262
33 23 0.000307
33 24 0.000291
33 25 0.000298
33 26 0.000269
33 27 0.000263
33 28 0.000262
33 29 0.000261
33 30 0.000259
33 31 0.000264
33 32 0.000262
33 33 0.000260
33 34 0.000259
33 35 0.000260
33 36 0.000260
33 37 0.000263
33 38 0.000261
33 39 0.000261
33 40 0.000263
33 41 0.000262
33 42 0.000261
33 43 0.000259
33 44 0.000261
33 45 0.000263
33 46 0.000262
33 47 0.000263
33 48 0.000262
33 49 0.000265
33 50 0.000262
33 51 0.000263
33 52 0.000262
33 53 0.000263
33 54 0.000264
33 55 0.000262
33 56 0.000262
33 57 0.000262
33 58 0.000263
33 59 0.000261
33 60 0.000264
33 61 0.000261
33 62 0.000262
33 63 0.000259
33 64 0.000261
33 65 0.000262
33 66 0.000262
33 67 0.000261
33 68 0.000263
33 69 0.000261
33 70 0.000262
33 71 0.000264
33 72 0.000275
33 73 0.000262
33 74 0.000262
33 75 0.000262
33 76 0.000294
33 77 0.000273
33 78 0.000263
33 79 0.000279
33 80 0.000260
33 81 0.000278
33 82 0.000261
33 83 0.000277
33 84 0.000298
33 85 0.000266
33 86 0.000391
33 87 0.000264
33 88 0.000261
33 89 0.000259
33 90 0.000260
33 91 0.000266
33 92 0.000266
33 93 0.000263
33 94 0.000266
33 95 0.000275
33 96 0.000268
33 97 0.000268
33 98 0.000264
33 99 0.000267
34 1 0.000282
34 2 0.000278
34 3 0.000275
34 4 0.000278
34 5 0.000276
34 6 0.000278
34 7 0.000282
34 8 0.000277
34 9 0.000276
34 10 0.000286
34 11 0.000276
34 12 0.000276
34 13 0.000333
34 14 0.000278
34 15 0.000274
34 16 0.000276
34 17 0.000276
34 18 0.000277
34 19 0.001090
34 20 0.001100
34 21 0.001092
34 22 0.001085
34 23 0.001082
34 24 0.001073
34 25 0.001079
34 26 0.001096
34 27 0.001074
34 28 0.001075
34 29 0.001084
34 30 0.001080
34 31 0.001076
34 32 0.001087
34 33 0.001060
34 34 0.001103
34 35 0.001070
34 36 0.001097
34 37 0.001078
34 38 0.001080
34 39 0.001073
34 40 0.000477
34 41 0.000480
34 42 0.000480
34 43 0.000477
34 44 0.000480
34 45 0.000477
34 46 0.000487
34 47 0.000473
34 48 0.000476
34 49 0.000479
34 50 0.000392
34 51 0.000392
34 52 0.000392
34 53 0.000391
34 54 0.000395
34 55 0.000392
34 56 0.000393
34 57 0.000392
34 58 0.000391
34 59 0.000388
34 60 0.000387
34 61 0.000391
34 62 0.000390
34 63 0.000389
34 64 0.000394
34 65 0.000390
34 66 0.000390
34 67 0.000390
34 68 0.000390
34 69 0.000388
34 70 0.000389
34 71 0.000392
34 72 0.000390
34 73 0.000390
34 74 0.000389
34 75 0.000394
34 76 0.000393
34 77 0.000390
34 78 0.000392
34 79 0.000404
34 80 0.000391
34 81 0.000394
34 82 0.000386
34 83 0.000394
34 84 0.000391
34 85 0.000394
34 86 0.000393
34 87 0.000394
34 88 0.000390
34 89 0.000394
34 90 0.000393
34 91 0.000391
34 92 0.000391
34 93 0.000393
34 94 0.000400
34 95 0.000393
34 96 0.000401
34 97 0.000395
34 98 0.000393
34 99 0.000388
35 1 0.000407
35 2 0.000408
35 3 0.000410
35 4 0.000406
35 5 0.000406
35 6 0.000410
35 7 0.000406
35 8 0.000411
35 9 0.000411
35 10 0.000406
35 11 0.000411
35 12 0.000407
35 13 0.000406
35 14 0.000409
35 15 0.000406
35 16 0.000407
35 17 0.000411
35 18 0.000407
35 19 0.000409
35 20 0.000406
35 21 0.000408
35 22 0.000411
35 23 0.000410
35 24 0.000407
35 25 0.000405
35 26 0.000408
35 27 0.000407
35 28 0.000411
35 29 0.000406
35 30 0.000409
35 31 0.000405
35 32 0.000411
35 33 0.000407
35 34 0.000413
35 35 0.000423
35 36 0.000414
35 37 0.000410
35 38 0.000409
35 39 0.000407
35 40 0.000408
35 41 0.000409
35 42 0.000416
35 43 0.000415
35 44 0.000415
35 45 0.000417
35 46 0.000411
35 47 0.000407
35 48 0.000409
35 49 0.000414
35 50 0.000411
35 51 0.000413
35 52 0.000413
35 53 0.000412
35 54 0.000415
35 55 0.000412
35 56 0.000411
35 57 0.000410
35 58 0.000410
35 59 0.000411
35 60 0.000414
35 61 0.000411
35 62 0.000406
35 63 0.000409
35 64 0.000416
35 65 0.000413
35 66 0.000408
35 67 0.000411
35 68 0.000410
35 69 0.000412
35 70 0.000410
35 71 0.000413
35 72 0.000417
35 73 0.000413
35 74 0.000414
35 75 0.000415
35 76 0.000415
35 77 0.000416
35 78 0.000419
35 79 0.000416
35 80 0.000414
35 81 0.000416
35 82 0.000409
35 83 0.000412
35 84 0.000409
35 85 0.000413
35 86 0.000418
35 87 0.000413
35 88 0.000414
35 89 0.000414
35 90 0.000413
35 91 0.000416
35 92 0.000416
35 93 0.000416
35 94 0.000423
35 95 0.000410
35 96 0.000416
35 97 0.000413
35 98 0.000416
35 99 0.000413
36 1 0.000431
36 2 0.000434
36 3 0.000434
36 4 0.000432
36 5 0.000436
36 6 0.000431
36 7 0.000438
36 8 0.000430
36 9 0.000431
36 10 0.000433
36 11 0.000433
36 12 0.000429
36 13 0.000430
36 14 0.000431
36 15 0.000430
36 16 0.000433
36 17 0.000457
36 18 0.000434
36 19 0.000432
36 20 0.000431
36 21 0.000434
36 22 0.000429
36 23 0.000435
36 24 0.000431
36 25 0.000431
36 26 0.000430
36 27 0.000431
36 28 0.000430
36 29 0.000431
36 30 0.000432
36 31 0.000434
36 32 0.000434
36 33 0.000432
36 34 0.000432
36 35 0.000434
36 36 0.000436
36 37 0.000437
36 38 0.000434
36 39 0.000436
36 40 0.000437
36 41 0.000439
36 42 0.000434
36 43 0.000439
36 44 0.000433
36 45 0.000440
36 46 0.000435
36 47 0.000436
36 48 0.000434
36 49 0.000437
36 50 0.000433
36 51 0.000433
36 52 0.000437
36 53 0.000433
36 54 0.000432
36 55 0.000433
36 56 0.000434
36 57 0.000438
36 58 0.000435
36 59 0.000434
36 60 0.000432
36 61 0.000438
36 62 0.000435
36 63 0.000439
36 64 0.000437
36 65 0.000436
36 66 0.000436
36 67 0.000440
36 68 0.000435
36 69 0.000484
36 70 0.000435
36 71 0.000440
36 72 0.000435
36 73 0.000436
36 74 0.000434
36 75 0.000435
36 76 0.000436
36 77 0.000437
36 78 0.000436
36 79 0.000437
36 80 0.000439
36 81 0.000436
36 82 0.000437
36 83 0.000437
36 84 0.000442
36 85 0.000439
36 86 0.000440
36 87 0.000435
36 88 0.000438
36 89 0.000436
36 90 0.000436
36 91 0.000436
36 92 0.000435
36 93 0.000437
36 94 0.000495
36 95 0.000437
36 96 0.000445
36 97 0.000438
36 98 0.000438
36 99 0.000440
37 1 0.000455
37 2 0.000456
37 3 0.000452
37 4 0.000462
37 5 0.000454
37 6 0.000454
37 7 0.000451
37 8 0.000457
37 9 0.000452
37 10 0.000452
37 11 0.000453
37 12 0.000454
37 13 0.000451
37 14 0.000457
37 15 0.000455
37 16 0.000452
37 17 0.000455
37 18 0.000455
37 19 0.000456
37 20 0.000453
37 21 0.000454
37 22 0.000455
37 23 0.000454
37 24 0.000457
37 25 0.000454
37 26 0.000458
37 27 0.000453
37 28 0.000452
37 29 0.000457
37 30 0.000454
37 31 0.000455
37 32 0.000494
37 33 0.000457
37 34 0.000457
37 35 0.000458
37 36 0.000457
37 37 0.000461
37 38 0.000459
37 39 0.000462
37 40 0.000459
37 41 0.000460
37 42 0.000459
37 43 0.000460
37 44 0.000455
37 45 0.000466
37 46 0.000456
37 47 0.000456
37 48 0.000456
37 49 0.000456
37 50 0.000456
37 51 0.000457
37 52 0.000456
37 53 0.000457
37 54 0.000456
37 55 0.000463
37 56 0.000456
37 57 0.000456
37 58 0.000460
37 59 0.000456
37 60 0.000458
37 61 0.000461
37 62 0.000456
37 63 0.000460
37 64 0.000466
37 65 0.000459
37 66 0.000462
37 67 0.000460
37 68 0.000462
37 69 0.000464
37 70 0.000462
37 71 0.000462
37 72 0.000458
37 73 0.000465
37 74 0.000461
37 75 0.000471
37 76 0.000462
37 77 0.000462
37 78 0.000466
37 79 0.000461
37 80 0.000461
37 81 0.000459
37 82 0.000457
37 83 0.000461
37 84 0.000460
37 85 0.000463
37 86 0.000458
37 87 0.000461
37 88 0.000459
37 89 0.000461
37 90 0.000465
37 91 0.000459
37 92 0.000461
37 93 0.000458
37 94 0.000461
37 95 0.000461
37 96 0.000465
37 97 0.000465
37 98 0.000464
37 99 0.000462
38 1 0.000473
38 2 0.000475
38 3 0.000475
38 4 0.000482
38 5 0.000479
38 6 0.000474
38 7 0.000475
38 8 0.000473
38 9 0.000482
38 10 0.000480
38 11 0.000474
38 12 0.000482
38 13 0.000475
38 14 0.000485
38 15 0.000479
38 16 0.000478
38 17 0.000476
38 18 0.000480
38 19 0.000474
38 20 0.000478
38 21 0.000478
38 22 0.000512
38 23 0.000477
38 24 0.000477
38 25 0.000483
38 26 0.000482
38 27 0.000477
38 28 0.000478
38 29 0.000478
38 30 0.000481
38 31 0.000482
38 32 0.000484
38 33 0.000478
38 34 0.000478
38 35 0.000481
38 36 0.000484
38 37 0.000480
38 38 0.000476
38 39 0.000482
38 40 0.000482
38 41 0.000481
38 42 0.000479
38 43 0.000481
38 44 0.000485
38 45 0.000484
38 46 0.000481
38 47 0.000480
38 48 0.000484
38 49 0.000488
38 50 0.000479
38 51 0.000483
38 52 0.000487
38 53 0.000480
38 54 0.000479
38 55 0.000485
38 56 0.000478
38 57 0.000481
38 58 0.000486
38 59 0.000482
38 60 0.000481
38 61 0.000484
38 62 0.000483
38 63 0.000486
38 64 0.000544
38 65 0.000483
38 66 0.000480
38 67 0.000481
38 68 0.000481
38 69 0.000488
38 70 0.000481
38 71 0.000481
38 72 0.000484
38 73 0.000479
38 74 0.000488
38 75 0.000480
38 76 0.000483
38 77 0.000490
38 78 0.000486
38 79 0.000484
38 80 0.000485
38 81 0.000487
38 82 0.000486
38 83 0.000488
38 84 0.000484
38 85 0.000485
38 86 0.000480
38 87 0.000483
38 88 0.000488
38 89 0.000494
38 90 0.000484
38 91 0.000485
38 92 0.000483
38 93 0.000481
38 94 0.000485
38 95 0.000485
38 96 0.000486
38 97 0.000484
38 98 0.000486
38 99 0.000485
39 1 0.000505
39 2 0.000500
39 3 0.000499
39 4 0.000498
39 5 0.000502
39 6 0.000501
39 7 0.000505
39 8 0.000500
39 9 0.000502
39 10 0.000503
39 11 0.000511
39 12 0.000502
39 13 0.000506
39 14 0.000501
39 15 0.000504
39 16 0.000500
39 17 0.000500
39 18 0.000508
39 19 0.000514
39 20 0.000506
39 21 0.000504
39 22 0.000508
39 23 0.000507
39 24 0.000506
39 25 0.000504
39 26 0.000505
39 27 0.000511
39 28 0.000508
39 29 0.000510
39 30 0.000508
39 31 0.000505
39 32 0.000518
39 33 0.000505
39 34 0.000503
39 35 0.000504
39 36 0.000505
39 37 0.000507
39 38 0.000507
39 39 0.000515
39 40 0.000509
39 41 0.000509
39 42 0.000507
39 43 0.000506
39 44 0.000504
39 45 0.000507
39 46 0.000510
39 47 0.000518
39 48 0.000504
39 49 0.000504
39 50 0.000503
39 51 0.000506
39 52 0.000507
39 53 0.000505
39 54 0.000509
39 55 0.000510
39 56 0.000512
39 57 0.000514
39 58 0.000506
39 59 0.000509
39 60 0.000505
39 61 0.000508
39 62 0.000510
39 63 0.000506
39 64 0.000510
39 65 0.000511
39 66 0.000506
39 67 0.000508
39 68 0.000510
39 69 0.000508
39 70 0.000508
39 71 0.000508
39 72 0.000510
39 73 0.000510
39 74 0.000507
39 75 0.000508
39 76 0.000507
39 77 0.000510
39 78 0.000505
39 79 0.000507
39 80 0.000515
39 81 0.000506
39 82 0.000509
39 83 0.000509
39 84 0.000507
39 85 0.000512
39 86 0.000507
39 87 0.000513
39 88 0.000504
39 89 0.000510
39 90 0.000508
39 91 0.000509
39 92 0.000513
39 93 0.000506
39 94 0.000508
39 95 0.000509
39 96 0.000509
39 97 0.000508
39 98 0.000509
39 99 0.000516
40 1 0.000527
40 2 0.000525
40 3 0.000523
40 4 0.000525
40 5 0.000525
40 6 0.000528
40 7 0.000525
40 8 0.000531
40 9 0.000534
40 10 0.000530
40 11 0.000536
40 12 0.000524
40 13 0.000526
40 14 0.000529
40 15 0.000527
40 16 0.000529
40 17 0.000646
40 18 0.000658
40 19 0.000649
40 20 0.000648
40 21 0.000656
40 22 0.000647
40 23 0.000653
40 24 0.000648
40 25 0.000647
40 26 0.000650
40 27 0.000646
40 28 0.000647
40 29 0.000652
40 30 0.000650
40 31 0.000646
40 32 0.000651
40 33 0.000653
40 34 0.000652
40 35 0.000647
40 36 0.000656
40 37 0.000652
40 38 0.000649
40 39 0.000650
40 40 0.000653
40 41 0.000650
40 42 0.000649
40 43 0.000648
40 44 0.000663
40 45 0.000656
40 46 0.000654
40 47 0.000716
40 48 0.000653
40 49 0.000652
40 50 0.000646
40 51 0.000651
40 52 0.000662
40 53 0.000647
40 54 0.000649
40 55 0.000651
40 56 0.000653
40 57 0.000648
40 58 0.000654
40 59 0.000650
40 60 0.000652
40 61 0.000653
40 62 0.000650
40 63 0.000654
40 64 0.000650
40 65 0.000649
40 66 0.000651
40 67 0.000648
40 68 0.000660
40 69 0.000650
40 70 0.000659
40 71 0.000651
40 72 0.000648
40 73 0.000654
40 74 0.000662
40 75 0.000647
40 76 0.000655
40 77 0.000651
40 78 0.000657
40 79 0.000652
40 80 0.000652
40 81 0.000648
40 82 0.000649
40 83 0.000652
40 84 0.000650
40 85 0.000656
40 86 0.000657
40 87 0.000654
40 88 0.000660
40 89 0.000652
40 90 0.000651
40 91 0.000657
40 92 0.000659
40 93 0.000651
40 94 0.000654
40 95 0.000655
40 96 0.000665
40 97 0.000654
40 98 0.000662
40 99 0.000659
