#TEAMS  #GAMES TIME(sec)
30 1002 0.000217
30 1002 0.000216
30 1002 0.000231
30 1002 0.000217
30 1002 0.000374
30 1002 0.000384
30 1002 0.000375
30 1002 0.000376
30 1002 0.000373
30 1002 0.000375
30 1002 0.000374
30 1002 0.000377
30 1002 0.000373
30 1002 0.000375
30 1002 0.000373
30 1002 0.000376
30 1002 0.000373
30 1002 0.000376
30 1002 0.000374
30 1002 0.000375
30 1002 0.000373
30 1002 0.000375
30 1002 0.000373
30 1002 0.000374
30 1002 0.000373
30 1002 0.000380
30 1002 0.000375
30 1002 0.000376
30 1002 0.000372
30 1002 0.000377
30 1002 0.000373
30 1002 0.000375
30 1002 0.000374
30 1002 0.000377
30 1002 0.000373
30 1002 0.000375
30 1002 0.000375
30 1002 0.000384
30 1002 0.000374
30 1002 0.000376
30 1002 0.000372
30 1002 0.000382
30 1002 0.000374
30 1002 0.000384
30 1002 0.000375
30 1002 0.000377
30 1002 0.000375
30 1002 0.000376
30 1002 0.000375
30 1002 0.000377
30 1002 0.000375
30 1002 0.000376
30 1002 0.000376
30 1002 0.000377
30 1002 0.000376
30 1002 0.000377
30 1002 0.000376
30 1002 0.000376
30 1002 0.000375
30 1002 0.000378
30 1002 0.000377
30 1002 0.000389
30 1002 0.000377
30 1002 0.000378
30 1002 0.000378
30 1002 0.000378
30 1002 0.000376
30 1002 0.000378
30 1002 0.000376
30 1002 0.000379
30 1002 0.000377
30 1002 0.000377
30 1002 0.000376
30 1002 0.000380
30 1002 0.000378
30 1002 0.000379
30 1002 0.000376
30 1002 0.000380
30 1002 0.000376
30 1002 0.000853
30 1002 0.000866
30 1002 0.000854
30 1002 0.000376
30 1002 0.000380
30 1002 0.000379
30 1002 0.000380
30 1002 0.000380
30 1002 0.000381
30 1002 0.000378
30 1002 0.000439
30 1002 0.000847
30 1002 0.000850
30 1002 0.000379
30 1002 0.000380
30 1002 0.000390
30 1002 0.000395
30 1002 0.000378
30 1002 0.000381
30 1002 0.000379
30 1002 0.000383
