#TEAMS  #GAMES TIME(sec)
30 1002 0.000213
30 1002 0.000202
30 1002 0.000207
30 1002 0.000207
30 1002 0.000209
30 1002 0.000355
30 1002 0.000291
30 1002 0.000295
30 1002 0.000293
30 1002 0.000292
30 1002 0.000292
30 1002 0.000293
30 1002 0.000292
30 1002 0.000292
30 1002 0.000292
30 1002 0.000297
30 1002 0.000291
30 1002 0.000296
30 1002 0.000294
30 1002 0.000296
30 1002 0.000294
30 1002 0.000296
30 1002 0.000292
30 1002 0.000293
30 1002 0.000292
30 1002 0.000305
30 1002 0.000292
30 1002 0.000295
30 1002 0.000292
30 1002 0.000293
30 1002 0.000292
30 1002 0.000294
30 1002 0.000293
30 1002 0.000297
30 1002 0.000362
30 1002 0.000360
30 1002 0.000357
30 1002 0.000358
30 1002 0.000358
30 1002 0.000361
30 1002 0.000357
30 1002 0.000358
30 1002 0.000368
30 1002 0.000360
30 1002 0.000357
30 1002 0.000359
30 1002 0.000366
30 1002 0.000360
30 1002 0.000360
30 1002 0.000357
30 1002 0.000358
30 1002 0.000363
30 1002 0.000356
30 1002 0.000360
30 1002 0.000363
30 1002 0.000362
30 1002 0.000358
30 1002 0.000362
30 1002 0.000356
30 1002 0.000361
30 1002 0.000358
30 1002 0.000362
30 1002 0.000359
30 1002 0.000359
30 1002 0.000372
30 1002 0.000361
30 1002 0.000804
30 1002 0.000831
30 1002 0.000359
30 1002 0.000363
30 1002 0.000359
30 1002 0.000362
30 1002 0.000359
30 1002 0.000365
30 1002 0.000361
30 1002 0.000360
30 1002 0.000362
30 1002 0.000377
30 1002 0.000360
30 1002 0.000376
30 1002 0.000360
30 1002 0.000362
30 1002 0.000822
30 1002 0.000810
30 1002 0.000361
30 1002 0.000362
30 1002 0.000359
30 1002 0.000360
30 1002 0.000360
30 1002 0.000365
30 1002 0.000362
30 1002 0.000370
30 1002 0.000363
30 1002 0.000808
30 1002 0.000827
30 1002 0.000829
30 1002 0.000365
30 1002 0.000365
30 1002 0.000363
30 1002 0.000364
